%YAML 1.1
%TAG !u! tag:unity3d.com,2011:
--- !u!1045 &1
EditorBuildSettings:
  m_ObjectHideFlags: 0
  serializedVersion: 2
  m_Scenes: []
  m_configObjects:
    Unity.XR.Oculus.Settings: {fileID: 11400000, guid: af6459da42ed738419c07c866b305340,
      type: 2}
    com.unity.xr.management.loader_settings: {fileID: 11400000, guid: 670018ab3721f7b44aa676a609bbf56a,
      type: 2}
